{
  "project_info": {
    "project_number": "500752126476",
    "firebase_url": "https://id-pixle.firebaseio.com",
    "project_id": "id-pixle",
    "storage_bucket": "id-pixle.appspot.com"
  },
  "client": [
    {
      "client_info": {
        "mobilesdk_app_id": "1:500752126476:android:69bf2122bb470271",
        "android_client_info": {
          "package_name": "com.meduru.pixle"
        }
      },
      "oauth_client": [
        {
          "client_id": "500752126476-so48mlb5mo4leojkhuqcritqpfcuoa11.apps.googleusercontent.com",
          "client_type": 1,
          "android_info": {
            "package_name": "com.meduru.pixle",
            "certificate_hash": "5491f3875d0bba3834a47d90f41bcf8f7b385f5d"
          }
        },
        {
          "client_id": "500752126476-7p7pepl5aut3ei4s4nnc6ddovfufi8at.apps.googleusercontent.com",
          "client_type": 3
        }
      ],
      "api_key": [
        {
          "current_key": "AIzaSyCSdJhkoN1Pk8kvKVKw4LBa4u_8ewTWPYo"
        }
      ],
      "services": {
        "analytics_service": {
          "status": 1
        },
        "appinvite_service": {
          "status": 2,
          "other_platform_oauth_client": [
            {
              "client_id": "500752126476-7p7pepl5aut3ei4s4nnc6ddovfufi8at.apps.googleusercontent.com",
              "client_type": 3
            }
          ]
        },
        "ads_service": {
          "status": 2
        }
      }
    }
  ],
  "configuration_version": "1"
}